^D:\OFFSHORE_TEAM_DIRECTORY\KAVITA\PROJECTS\CURVE_UPLOADER\CURVEUPLOADER\GUI\ABOUTBOX.RESX
C:\WINDOWS\ASSEMBLY\PUBPOL187.DAT
^D:\OFFSHORE_TEAM_DIRECTORY\KAVITA\PROJECTS\CURVE_UPLOADER\CURVEUPLOADER\GUI\CURVESIGNOFF.RESX
^D:\OFFSHORE_TEAM_DIRECTORY\KAVITA\PROJECTS\CURVE_UPLOADER\CURVEUPLOADER\GUI\FORMCURVEBUILDSTATUS.RESX
^D:\OFFSHORE_TEAM_DIRECTORY\KAVITA\PROJECTS\CURVE_UPLOADER\CURVEUPLOADER\GUI\FORMCURVELISTSTATUS.RESX
^D:\OFFSHORE_TEAM_DIRECTORY\KAVITA\PROJECTS\CURVE_UPLOADER\CURVEUPLOADER\GUI\FORMDOWNLOADSINGLECURVE.RESX
^D:\OFFSHORE_TEAM_DIRECTORY\KAVITA\PROJECTS\CURVE_UPLOADER\CURVEUPLOADER\GUI\FORMENVIRONMENT.RESX
^D:\OFFSHORE_TEAM_DIRECTORY\KAVITA\PROJECTS\CURVE_UPLOADER\CURVEUPLOADER\GUI\FORMFORWARDCURVEDIALOG.RESX
^D:\OFFSHORE_TEAM_DIRECTORY\KAVITA\PROJECTS\CURVE_UPLOADER\CURVEUPLOADER\GUI\FORMUPLOADSINGLECURVE.RESX
^D:\OFFSHORE_TEAM_DIRECTORY\KAVITA\PROJECTS\CURVE_UPLOADER\CURVEUPLOADER\GUI\ZEMAPROFILE.RESX
^D:\OFFSHORE_TEAM_DIRECTORY\KAVITA\PROJECTS\CURVE_UPLOADER\CURVEUPLOADER\PROPERTIES\RESOURCES.RESX
D:\OFFSHORE_TEAM_DIRECTORY\KAVITA\PROJECTS\CURVE_UPLOADER\CURVEUPLOADER\RESOURCES\CCIHEADERLOGO.PNG
