﻿<?xml version="1.0" encoding="UTF-8"?>
<TestRun id="088fe217-393f-4956-90dc-472be9e3a9de" name="kashas@STM-ACCDEV-VM22 2016-02-03 00:41:36" runUser="LDHENERGY\kashas" xmlns="http://microsoft.com/schemas/VisualStudio/TeamTest/2010">
  <TestSettings name="Local" id="e7e96642-004d-4570-8e04-b67d946f7cb5">
    <Description>These are default test settings for a local test run.</Description>
    <Deployment enabled="false" runDeploymentRoot="kashas_STM-ACCDEV-VM22 2016-02-03 00_41_36">
      <DeploymentItem filename="\\wltsan03\common\ENERGY_VOL\users\kashas\Desktop\CurveUploader.2.7.0.0\CurveUploader\bin\CurveUploader.dll" />
      <DeploymentItem filename="\\wltsan03\common\ENERGY_VOL\users\kashas\Desktop\CurveUploader.2.7.0.0\CurveUploader\bin\ExcelDna.Integration.dll" />
      <DeploymentItem filename="\\wltsan03\common\ENERGY_VOL\users\kashas\Desktop\CurveUploader.2.7.0.0\CurveUploader\bin\log4net.dll" />
    </Deployment>
    <Execution>
      <TestTypeSpecific />
      <AgentRule name="Execution Agents">
      </AgentRule>
    </Execution>
  </TestSettings>
  <Times creation="2016-02-03T00:41:36.3152699-05:00" queuing="2016-02-03T00:41:37.7042699-05:00" start="2016-02-03T00:41:37.9232699-05:00" finish="2016-02-03T00:41:38.2522699-05:00" />
  <ResultSummary outcome="Error">
    <Counters total="1" executed="1" error="1" failed="0" timeout="0" aborted="0" inconclusive="0" passedButRunAborted="0" notRunnable="0" notExecuted="0" disconnected="0" warning="0" passed="0" completed="0" inProgress="0" pending="0" />
  </ResultSummary>
  <TestDefinitions>
    <UnitTest name="UploadCurveTestTest" storage="\\wltsan03\common\energy_vol\users\kashas\desktop\curveuploader.2.7.0.0\testproject1\bin\debug\testproject1.dll" id="77cd5f81-9419-9c6a-c116-fa0d0546abb0">
      <Execution id="e4e703bd-b953-40de-b75e-194a457d3b46" />
      <TestMethod codeBase="file://wltsan03/common/ENERGY_VOL/users/kashas/Desktop/CurveUploader.2.7.0.0/TestProject1/bin/Debug/TestProject1.DLL" adapterTypeName="Microsoft.VisualStudio.TestTools.TestTypes.Unit.UnitTestAdapter, Microsoft.VisualStudio.QualityTools.Tips.UnitTest.Adapter, Version=10.0.0.0, Culture=neutral, PublicKeyToken=b03f5f7f11d50a3a" className="TestProject1.CurveGatewayTest, TestProject1, Version=1.0.0.0, Culture=neutral, PublicKeyToken=null" name="UploadCurveTestTest" />
    </UnitTest>
  </TestDefinitions>
  <TestLists>
    <TestList name="Results Not in a List" id="8c84fa94-04c1-424b-9868-57a2d4851a1d" />
    <TestList name="All Loaded Results" id="19431567-8539-422a-85d7-44ee4e166bda" />
  </TestLists>
  <TestEntries>
    <TestEntry testId="77cd5f81-9419-9c6a-c116-fa0d0546abb0" executionId="e4e703bd-b953-40de-b75e-194a457d3b46" testListId="8c84fa94-04c1-424b-9868-57a2d4851a1d" />
  </TestEntries>
  <Results>
    <UnitTestResult executionId="e4e703bd-b953-40de-b75e-194a457d3b46" testId="77cd5f81-9419-9c6a-c116-fa0d0546abb0" testName="UploadCurveTestTest" computerName="STM-ACCDEV-VM22" startTime="2016-02-03T00:41:38.1242699-05:00" endTime="2016-02-03T00:41:38.1662699-05:00" testType="13cdc9d9-ddb5-4fa4-a97d-d965ccfc6d4b" testListId="8c84fa94-04c1-424b-9868-57a2d4851a1d" relativeResultsDirectory="e4e703bd-b953-40de-b75e-194a457d3b46">
      <Output>
        <ErrorInfo>
          <Message>Unit Test Adapter threw exception: 
URI formats are not supported..</Message>
        </ErrorInfo>
      </Output>
    </UnitTestResult>
  </Results>
</TestRun>